 _______     _______.     ___              ___      .______   .______
|   ____|   /       |    /   \            /   \     |   _  \  |   _  \
|  |__     |   (----`   /  ^  \          /  ^  \    |  |_)  | |  |_)  |
|   __|     \   \      /  /_\  \        /  /_\  \   |   ___/  |   ___/
|  |    .----)   |    /  _____  \      /  _____  \  |  |      |  |
|__|    |_______/    /__/     \__\    /__/     \__\ | _|      | _|
